dataset ~ basic stats
…
ゴール数、アシスト数

score_manager %>% 
  filter(CP == 0,
         manager %in% c(11,12)) %>% 
  gather(key = "score", value = "scorer", #scorerをまとめる
         starts_with("score")) %>% 
  select(id,score,scorer) %>% 
  filter(scorer != "失点") %>% 
  group_by(id) %>% 
  mutate(No. = row_number()) %>% 
  select(id,score,scorer,No.) %>% 
  arrange(id)

## # A tibble: 165 x 4
## # Groups:   id [70]
##       id score       scorer       No.
##    <dbl> <chr>       <chr>      <int>
##  1   224 scorer...18 Rummenigge     1
##  2   225 scorer...16 Rummenigge     1
##  3   225 scorer...18 Cruijff        2
##  4   225 scorer...20 Rummenigge     3
##  5   226 scorer...16 Messi          1
##  6   226 scorer...20 Messi          2
##  7   227 scorer...16 Vieira         1
##  8   227 scorer...20 Cruijff        2
##  9   227 scorer...22 Totti          3
## 10   227 scorer...24 Neymar         4
## # ... with 155 more rows
…
